module gitlab.com/gitlab-org/gitaly/tools/go-licenses

go 1.23

require github.com/google/go-licenses v1.6.0

require (
	github.com/emirpasic/gods v1.12.0 // indirect
	github.com/go-logr/logr v1.2.0 // indirect
	github.com/golang/groupcache v0.0.0-20210331224755-41bb18bfe9da // indirect
	github.com/google/go-cmp v0.5.9 // indirect
	github.com/google/licenseclassifier v0.0.0-20210722185704-3043a050f148 // indirect
	github.com/inconshreveable/mousetrap v1.0.1 // indirect
	github.com/jbenet/go-context v0.0.0-20150711004518-d14ea06fba99 // indirect
	github.com/kevinburke/ssh_config v0.0.0-20190725054713-01f96b0aa0cd // indirect
	github.com/mitchellh/go-homedir v1.1.0 // indirect
	github.com/otiai10/copy v1.6.0 // indirect
	github.com/sergi/go-diff v1.2.0 // indirect
	github.com/spf13/cobra v1.6.0 // indirect
	github.com/spf13/pflag v1.0.5 // indirect
	github.com/src-d/gcfg v1.4.0 // indirect
	github.com/xanzy/ssh-agent v0.2.1 // indirect
	go.opencensus.io v0.23.0 // indirect
	golang.org/x/crypto v0.1.0 // indirect
	golang.org/x/mod v0.7.0 // indirect
	golang.org/x/net v0.5.0 // indirect
	golang.org/x/sys v0.4.0 // indirect
	golang.org/x/text v0.6.0 // indirect
	golang.org/x/tools v0.5.0 // indirect
	gopkg.in/src-d/go-billy.v4 v4.3.2 // indirect
	gopkg.in/src-d/go-git.v4 v4.13.1 // indirect
	gopkg.in/warnings.v0 v0.1.2 // indirect
	k8s.io/klog/v2 v2.80.1 // indirect
)
